…
    ##    Min. 1st Qu.  Median    Mean 3rd Qu.    Max. 
    ##       1     343     603    1183    1081 2483235

This summary shows a large maximum value, so it is best to check for
outliers.

``` r
ride_length_outlier_check <- all_trips_v2 %>%
  arrange(desc(ride_length))
ride_length_outlier_check[1:30, c("ride_id","ride_length", "member_casual")]
```

    ## # A tibble: 30 × 3
    ##    ride_id          ride_length member_casual
    ##    <chr>                  <dbl> <chr>        
    ##  1 7D4CB0DD5137CA9A     2483235 casual       
    ##  2 94DD1FB2367EA8B6     2149238 casual       
    ##  3 70835A30C542BA2E     2052529 casual       
    ##  4 3BFD0599F253B024     2052487 casual       
    ##  5 A256444CE831A7EE     2051352 casual       
    ##  6 307CA01BAE3CC7E3     2016224 casual       
    ##  7 59F28D6FACEC86EB     1944178 casual       
    ##  8 DC510E6F98003A94     1922127 casual       
    ##  9 4BF7A8BC8417643F     1876169 casual       
    ## 10 DCB66918A43B6B92     1866638 casual       
    ## # ℹ 20 more rows
…
